Workflow: How to use the serosurvey R package? • serosurvey
…
  mutate(output=pmap(.l = select(.,design,denominator,numerator),
                     .f = serosvy_proportion)) %>% 
  
  # mutate(output=map(.x = output,.f = tidy_srvyr_tibble)) %>% 
  select(-design,-denominator,-numerator) %>% 
  unnest(cols = c(output)) #%>% 

outcome_01_pre
#> # A tibble: 25 x 23
#>    denominator denominator_lev~ numerator numerator_level   prop prop_low
#>    <chr>       <fct>            <chr>     <fct>            <dbl>    <dbl>
#>  1 stype       E                awards    No              0.211   0.130  
#>  2 stype       E                awards    Yes             0.789   0.675  
#>  3 stype       H                awards    No              0.852   0.564  
#>  4 stype       H                awards    Yes             0.148   0.0377 
#>  5 stype       M                awards    No              0.552   0.224  
#>  6 stype       M                awards    Yes             0.448   0.160  
#>  7 stype       E                outcome_~ (-0.1,50]       0.182   0.0499 
#>  8 stype       E                outcome_~ (50,100]        0.818   0.515  
#>  9 stype       H                outcome_~ (-0.1,50]       0.0769  0.00876
#> 10 stype       H                outcome_~ (50,100]        0.923   0.560  
#> # ... with 15 more rows, and 17 more variables: prop_upp <dbl>,
#> #   prop_cv <dbl>, prop_se <dbl>, total <dbl>, total_low <dbl>,
#> #   total_upp <dbl>, total_cv <dbl>, total_se <dbl>, total_deff <dbl>,
#> #   total_den <dbl>, total_den_low <dbl>, total_den_upp <dbl>,
#> #   raw_num <int>, raw_den <int>, raw_prop <dbl>, raw_prop_low <dbl>,
#> #   raw_prop_upp <dbl>
…
